(footprint "chamfered_grid_corner_only"
	(version 20240108)
	(generator "kicad-footprint-generator")
	(layer "F.Cu")
	(attr smd)
	(fp_circle
		(center 2 2.5)
		(end 2.2 2.5)
		(stroke
			(width 0.01)
			(type solid)
		)
		(fill none)
		(layer "F.SilkS")
	)
	(pad "1" smd custom
		(at -1.4 -2.1)
		(size 0.795 0.795)
		(layers "F.Cu" "F.Paste" "F.Mask")
		(options
			(clearance outline)
			(anchor circle)
		)
		(primitives
			(gr_poly
				(pts
					(xy -0.5 -0.210086)
					(xy -0.210086 -0.5)
					(xy 0.5 -0.5)
					(xy 0.5 0.5)
					(xy -0.5 0.5)
				)
				(width 0)
			)
		)
	)
	(pad "1" smd rect
		(at -1.4 -0.7)
		(size 1 1)
		(layers "F.Cu" "F.Paste" "F.Mask")
	)
	(pad "1" smd rect
		(at -1.4 0.7)
		(size 1 1)
		(layers "F.Cu" "F.Paste" "F.Mask")
	)
	(pad "1" smd custom
		(at -1.4 2.1)
		(size 0.795 0.795)
		(layers "F.Cu" "F.Paste" "F.Mask")
		(options
			(clearance outline)
			(anchor circle)
		)
		(primitives
			(gr_poly
				(pts
					(xy -0.5 -0.5)
					(xy 0.5 -0.5)
					(xy 0.5 0.5)
					(xy -0.210086 0.5)
					(xy -0.5 0.210086)
				)
				(width 0)
			)
		)
	)
	(pad "1" smd rect
		(at 0 -2.1)
		(size 1 1)
		(layers "F.Cu" "F.Paste" "F.Mask")
	)
	(pad "1" smd rect
		(at 0 -0.7)
		(size 1 1)
		(layers "F.Cu" "F.Paste" "F.Mask")
	)
	(pad "1" smd rect
		(at 0 0.7)
		(size 1 1)
		(layers "F.Cu" "F.Paste" "F.Mask")
	)
	(pad "1" smd rect
		(at 0 2.1)
		(size 1 1)
		(layers "F.Cu" "F.Paste" "F.Mask")
	)
	(pad "1" smd custom
		(at 1.4 -2.1)
		(size 0.795 0.795)
		(layers "F.Cu" "F.Paste" "F.Mask")
		(options
			(clearance outline)
			(anchor circle)
		)
		(primitives
			(gr_poly
				(pts
					(xy -0.5 -0.5)
					(xy 0.210086 -0.5)
					(xy 0.5 -0.210086)
					(xy 0.5 0.5)
					(xy -0.5 0.5)
				)
				(width 0)
			)
		)
	)
	(pad "1" smd rect
		(at 1.4 -0.7)
		(size 1 1)
		(layers "F.Cu" "F.Paste" "F.Mask")
	)
	(pad "1" smd rect
		(at 1.4 0.7)
		(size 1 1)
		(layers "F.Cu" "F.Paste" "F.Mask")
	)
	(pad "1" smd custom
		(at 1.4 2.1)
		(size 0.795 0.795)
		(layers "F.Cu" "F.Paste" "F.Mask")
		(options
			(clearance outline)
			(anchor circle)
		)
		(primitives
			(gr_poly
				(pts
					(xy -0.5 -0.5)
					(xy 0.5 -0.5)
					(xy 0.5 0.210086)
					(xy 0.210086 0.5)
					(xy -0.5 0.5)
				)
				(width 0)
			)
		)
	)
)
